Assessment2
…
## Warning: 136 parsing failures.
## row col expected               actual
##   8  -- a number Prefer not to answer
##  29  -- a number Prefer not to answer
##  32  -- a number Prefer not to answer
##  33  -- a number Prefer not to answer
##  38  -- a number Prefer not to answer
## ... ... ........ ....................
## See problems(...) for more details.

## # A tibble: 889 x 65
##        id celebrate main_dish main_dish_other main_prep main_prep_other stuffing
##     <dbl> <chr>     <chr>     <chr>           <chr>     <chr>           <chr>   
##  1 4.34e9 Yes       Turkey    <NA>            Baked     <NA>            Bread-b~
##  2 4.34e9 Yes       Turkey    <NA>            Baked     <NA>            Bread-b~
##  3 4.34e9 Yes       Turkey    <NA>            Roasted   <NA>            Rice-ba~
##  4 4.34e9 Yes       Turkey    <NA>            Baked     <NA>            Bread-b~
##  5 4.34e9 Yes       Tofurkey  <NA>            Baked     <NA>            Bread-b~
##  6 4.34e9 Yes       Turkey    <NA>            Roasted   <NA>            Rice-ba~
##  7 4.34e9 Yes       Turkey    <NA>            Baked     <NA>            Bread-b~
##  8 4.34e9 Yes       Turkey    <NA>            Roasted   <NA>            Bread-b~
##  9 4.34e9 Yes       Other (p~ Turkey and Ham  Baked     <NA>            Bread-b~
## 10 4.34e9 No        <NA>      <NA>            <NA>      <NA>            <NA>    
## # ... with 879 more rows, and 58 more variables: stuffing_other <chr>,
## #   cranberry <chr>, cranberry_other <chr>, gravy <chr>, side1 <chr>,
## #   side2 <chr>, side3 <chr>, side4 <chr>, side5 <chr>, side6 <chr>,
## #   side7 <chr>, side8 <chr>, side9 <chr>, side10 <chr>, side11 <chr>,
## #   side12 <chr>, side13 <chr>, side14 <chr>, side15 <chr>, pie1 <chr>,
## #   pie2 <chr>, pie3 <chr>, pie4 <chr>, pie5 <chr>, pie6 <chr>, pie7 <chr>,
## #   pie8 <chr>, pie9 <chr>, pie10 <chr>, pie11 <chr>, pie12 <chr>, ...
…
## # A tibble: 2 x 2
##   celebrate     n
##   <chr>     <int>
## 1 No           78
## 2 Yes         980

980 people celebrates the Thanksgiving and they said Yes.

Part 2 - Question 5 categories and insights for each main dish served and the method it is prepared

data%>%
count (main_dish, main_prep, sort = TRUE)

## # A tibble: 31 x 3
##    main_dish              main_prep                  n
##    <chr>                  <chr>                  <int>
##  1 Turkey                 Baked                    422
##  2 Turkey                 Roasted                  351
##  3 <NA>                   <NA>                      84
##  4 Turkey                 Fried                     41
##  5 Turkey                 Other (please specify)    34
##  6 Ham/Pork               Baked                     22
##  7 Other (please specify) Baked                     16
##  8 Tofurkey               Baked                     14
##  9 Other (please specify) Other (please specify)    12
## 10 Turkey                 I don't know              11
## # ... with 21 more rows
…
When I execute the R chunk there are 8145 observations with 3 parameters and this code shows the unique ID for person, type of side, pie or dessert and the value for that type of side, pie or dessert. To be able to exclude Other (please specify) option columns Side15, pie13 and dessert12 are excluded. So there are 14 different sides, 12 different pies and 11 different desserts. Columns side14, pie12, dessert12 have answer of Other (please specify) and these are filtered as well. Also answers of na and None are also filtered. For example person with unique ID number 4337935621 said for one of the side dishes s/he had Brussel sprouts and we will see this specific person again and again according to the number of his/her choice of side, pie and dessert. If s/he has 5 side dishes, 3 pies and 2 desserts then we will see this ID 10 times with his/her choices. With this code we can continue our analysis of side, pie or dessert selections of people for Thanksgiving.

Part 2 - Question 11 Using pairwise_cor() function

#install package and load library
#install.packages("widyr")
library(widyr)

## Warning: package 'widyr' was built under R version 4.1.1

newdata%>%
pairwise_cor(value, id, sort = TRUE)

## # A tibble: 992 x 3
##    item1               item2               correlation
##    <chr>               <chr>                     <dbl>
##  1 Cookies             Brownies                  0.411
##  2 Brownies            Cookies                   0.411
##  3 Sweet Potato        Macaroni and cheese       0.365
##  4 Macaroni and cheese Sweet Potato              0.365
##  5 Rolls/biscuits      Mashed potatoes           0.341
##  6 Mashed potatoes     Rolls/biscuits            0.341
##  7 Peach cobbler       Sweet Potato              0.339
##  8 Sweet Potato        Peach cobbler             0.339
##  9 Pumpkin             Mashed potatoes           0.290
## 10 Mashed potatoes     Pumpkin                   0.290
## # ... with 982 more rows
…
